{
  "project_info": {
    "project_number": "966723578916",
    "firebase_url": "https://educational-game-c9f9c.firebaseio.com",
    "project_id": "educational-game-c9f9c",
    "storage_bucket": "educational-game-c9f9c.appspot.com"
  },
  "client": [
    {
      "client_info": {
        "mobilesdk_app_id": "1:966723578916:android:0e19218bdea480ef307cb1",
        "android_client_info": {
          "package_name": "com.DefaultCompany.Boku.wpg5"
        }
      },
      "oauth_client": [
        {
          "client_id": "966723578916-9b6hps3n9dbqhl1j9qsslmqv008ake7t.apps.googleusercontent.com",
          "client_type": 3
        }
      ],
      "api_key": [
        {
          "current_key": "AIzaSyDNLzXgFGEnIefMsjqNVYMVmQC6Qas4Z7A"
        }
      ],
      "services": {
        "appinvite_service": {
          "other_platform_oauth_client": [
            {
              "client_id": "966723578916-9b6hps3n9dbqhl1j9qsslmqv008ake7t.apps.googleusercontent.com",
              "client_type": 3
            }
          ]
        }
      }
    },
    {
      "client_info": {
        "mobilesdk_app_id": "1:966723578916:android:8a42f5b421b6f8b5307cb1",
        "android_client_info": {
          "package_name": "com.DefaultCompany.FirebaseAuth.hamka"
        }
      },
      "oauth_client": [
        {
          "client_id": "966723578916-9b6hps3n9dbqhl1j9qsslmqv008ake7t.apps.googleusercontent.com",
          "client_type": 3
        }
      ],
      "api_key": [
        {
          "current_key": "AIzaSyDNLzXgFGEnIefMsjqNVYMVmQC6Qas4Z7A"
        }
      ],
      "services": {
        "appinvite_service": {
          "other_platform_oauth_client": [
            {
              "client_id": "966723578916-9b6hps3n9dbqhl1j9qsslmqv008ake7t.apps.googleusercontent.com",
              "client_type": 3
            }
          ]
        }
      }
    }
  ],
  "configuration_version": "1"
}